FFTx32-master/src/main.vcd
$date
	Fri Apr 22 21:51:08 2022
$end
$version
	Icarus Verilog
$end
$timescale
	10ps
$end
$scope module FFTtb $end
$var wire 1 ! ret $end
$var reg 1 " clk $end
$var reg 1 # enable $end
$var reg 12 $ i0 [11:0] $end
$var reg 12 % i1 [11:0] $end
$var reg 12 & i10 [11:0] $end
$var reg 12 ' i11 [11:0] $end
$var reg 12 ( i12 [11:0] $end
$var reg 12 ) i13 [11:0] $end
$var reg 12 * i14 [11:0] $end
$var reg 12 + i15 [11:0] $end
$var reg 12 , i16 [11:0] $end
$var reg 12 - i17 [11:0] $end
$var reg 12 . i18 [11:0] $end
$var reg 12 / i19 [11:0] $end
$var reg 12 0 i2 [11:0] $end
$var reg 12 1 i20 [11:0] $end
$var reg 12 2 i21 [11:0] $end
$var reg 12 3 i22 [11:0] $end
$var reg 12 4 i23 [11:0] $end
$var reg 12 5 i24 [11:0] $end
$var reg 12 6 i25 [11:0] $end
$var reg 12 7 i26 [11:0] $end
$var reg 12 8 i27 [11:0] $end
$var reg 12 9 i28 [11:0] $end
$var reg 12 : i29 [11:0] $end
$var reg 12 ; i3 [11:0] $end
$var reg 12 < i30 [11:0] $end
$var reg 12 = i31 [11:0] $end
$var reg 12 > i4 [11:0] $end
$var reg 12 ? i5 [11:0] $end
$var reg 12 @ i6 [11:0] $end
$var reg 12 A i7 [11:0] $end
$var reg 12 B i8 [11:0] $end
$var reg 12 C i9 [11:0] $end
$var reg 12 D r0 [11:0] $end
$var reg 12 E r1 [11:0] $end
$var reg 12 F r10 [11:0] $end
$var reg 12 G r11 [11:0] $end
$var reg 12 H r12 [11:0] $end
$var reg 12 I r13 [11:0] $end
$var reg 12 J r14 [11:0] $end
$var reg 12 K r15 [11:0] $end
$var reg 12 L r16 [11:0] $end
$var reg 12 M r17 [11:0] $end
$var reg 12 N r18 [11:0] $end
$var reg 12 O r19 [11:0] $end
$var reg 12 P r2 [11:0] $end
$var reg 12 Q r20 [11:0] $end
$var reg 12 R r21 [11:0] $end
$var reg 12 S r22 [11:0] $end
$var reg 12 T r23 [11:0] $end
$var reg 12 U r24 [11:0] $end
$var reg 12 V r25 [11:0] $end
$var reg 12 W r26 [11:0] $end
$var reg 12 X r27 [11:0] $end
$var reg 12 Y r28 [11:0] $end
$var reg 12 Z r29 [11:0] $end
$var reg 12 [ r3 [11:0] $end
$var reg 12 \ r30 [11:0] $end
$var reg 12 ] r31 [11:0] $end
$var reg 12 ^ r4 [11:0] $end
$var reg 12 _ r5 [11:0] $end
$var reg 12 ` r6 [11:0] $end
$var reg 12 a r7 [11:0] $end
$var reg 12 b r8 [11:0] $end
$var reg 12 c r9 [11:0] $end
$scope module Test $end
$var wire 1 " clk $end
$var wire 1 # enable $end
$var wire 12 d i0 [11:0] $end
$var wire 12 e i1 [11:0] $end
$var wire 12 f i10 [11:0] $end
$var wire 12 g i11 [11:0] $end
$var wire 12 h i12 [11:0] $end
$var wire 12 i i13 [11:0] $end
$var wire 12 j i14 [11:0] $end
$var wire 12 k i15 [11:0] $end
$var wire 12 l i16 [11:0] $end
$var wire 12 m i17 [11:0] $end
$var wire 12 n i18 [11:0] $end
$var wire 12 o i19 [11:0] $end
$var wire 12 p i2 [11:0] $end
$var wire 12 q i20 [11:0] $end
$var wire 12 r i21 [11:0] $end
$var wire 12 s i22 [11:0] $end
$var wire 12 t i23 [11:0] $end
$var wire 12 u i24 [11:0] $end
$var wire 12 v i25 [11:0] $end
$var wire 12 w i26 [11:0] $end
$var wire 12 x i27 [11:0] $end
$var wire 12 y i28 [11:0] $end
$var wire 12 z i29 [11:0] $end
$var wire 12 { i3 [11:0] $end
$var wire 12 | i30 [11:0] $end
$var wire 12 } i31 [11:0] $end
$var wire 12 ~ i4 [11:0] $end
$var wire 12 !" i5 [11:0] $end
$var wire 12 "" i6 [11:0] $end
$var wire 12 #" i7 [11:0] $end
$var wire 12 $" i8 [11:0] $end
$var wire 12 %" i9 [11:0] $end
$var wire 12 &" r0 [11:0] $end
$var wire 12 '" r1 [11:0] $end
$var wire 12 (" r10 [11:0] $end
$var wire 12 )" r11 [11:0] $end
$var wire 12 *" r12 [11:0] $end
$var wire 12 +" r13 [11:0] $end
$var wire 12 ," r14 [11:0] $end
$var wire 12 -" r15 [11:0] $end
$var wire 12 ." r16 [11:0] $end
$var wire 12 /" r17 [11:0] $end
$var wire 12 0" r18 [11:0] $end
$var wire 12 1" r19 [11:0] $end
$var wire 12 2" r2 [11:0] $end
$var wire 12 3" r20 [11:0] $end
$var wire 12 4" r21 [11:0] $end
$var wire 12 5" r22 [11:0] $end
$var wire 12 6" r23 [11:0] $end
$var wire 12 7" r24 [11:0] $end
$var wire 12 8" r25 [11:0] $end
$var wire 12 9" r26 [11:0] $end
$var wire 12 :" r27 [11:0] $end
$var wire 12 ;" r28 [11:0] $end
$var wire 12 <" r29 [11:0] $end
$var wire 12 =" r3 [11:0] $end
$var wire 12 >" r30 [11:0] $end
$var wire 12 ?" r31 [11:0] $end
$var wire 12 @" r4 [11:0] $end
$var wire 12 A" r5 [11:0] $end
$var wire 12 B" r6 [11:0] $end
$var wire 12 C" r7 [11:0] $end
$var wire 12 D" r8 [11:0] $end
$var wire 12 E" r9 [11:0] $end
$var wire 1 ! ret $end
$var wire 1 F" out_valid $end
$var wire 16 G" dout_r [15:0] $end
$var wire 16 H" dout_i [15:0] $end
$var reg 12 I" din_i [11:0] $end
$var reg 12 J" din_r [11:0] $end
$var reg 1 K" in_valid $end
$var reg 1 L" rst_n $end
$var integer 32 M" flag [31:0] $end
$var integer 32 N" j [31:0] $end
$var integer 32 O" latency [31:0] $end
$scope module FFT_CORE $end
$var wire 1 " clk $end
$var wire 12 P" din_i [11:0] $end
$var wire 24 Q" din_i_wire [23:0] $end
$var wire 12 R" din_r [11:0] $end
$var wire 24 S" din_r_wire [23:0] $end
$var wire 1 K" in_valid $end
$var wire 1 F" out_valid $end
$var wire 1 L" rst_n $end
$var wire 5 T" y_1 [4:0] $end
$var wire 24 U" shift_8_dout_r [23:0] $end
$var wire 24 V" shift_8_dout_i [23:0] $end
$var wire 24 W" shift_4_dout_r [23:0] $end
$var wire 24 X" shift_4_dout_i [23:0] $end
$var wire 24 Y" shift_2_dout_r [23:0] $end
$var wire 24 Z" shift_2_dout_i [23:0] $end
$var wire 24 [" shift_1_dout_r [23:0] $end
$var wire 24 \" shift_1_dout_i [23:0] $end
$var wire 24 ]" shift_16_dout_r [23:0] $end
$var wire 24 ^" shift_16_dout_i [23:0] $end
$var wire 24 _" rom8_w_r [23:0] $end
$var wire 24 `" rom8_w_i [23:0] $end
$var wire 2 a" rom8_state [1:0] $end
$var wire 24 b" rom4_w_r [23:0] $end
$var wire 24 c" rom4_w_i [23:0] $end
$var wire 2 d" rom4_state [1:0] $end
$var wire 24 e" rom2_w_r [23:0] $end
$var wire 24 f" rom2_w_i [23:0] $end
$var wire 2 g" rom2_state [1:0] $end
$var wire 24 h" rom16_w_r [23:0] $end
$var wire 24 i" rom16_w_i [23:0] $end
$var wire 2 j" rom16_state [1:0] $end
$var wire 24 k" radix_no5_delay_r [23:0] $end
$var wire 24 l" radix_no5_delay_i [23:0] $end
$var wire 1 m" radix_no4_outvalid $end
$var wire 24 n" radix_no4_op_r [23:0] $end
$var wire 24 o" radix_no4_op_i [23:0] $end
$var wire 24 p" radix_no4_delay_r [23:0] $end
$var wire 24 q" radix_no4_delay_i [23:0] $end
$var wire 1 r" radix_no3_outvalid $end
$var wire 24 s" radix_no3_op_r [23:0] $end
$var wire 24 t" radix_no3_op_i [23:0] $end
$var wire 24 u" radix_no3_delay_r [23:0] $end
$var wire 24 v" radix_no3_delay_i [23:0] $end
$var wire 1 w" radix_no2_outvalid $end
$var wire 24 x" radix_no2_op_r [23:0] $end
$var wire 24 y" radix_no2_op_i [23:0] $end
$var wire 24 z" radix_no2_delay_r [23:0] $end
$var wire 24 {" radix_no2_delay_i [23:0] $end
$var wire 1 |" radix_no1_outvalid $end
$var wire 24 }" radix_no1_op_r [23:0] $end
$var wire 24 ~" radix_no1_op_i [23:0] $end
$var wire 24 !# radix_no1_delay_r [23:0] $end
$var wire 24 "# radix_no1_delay_i [23:0] $end
$var wire 24 ## out_r [23:0] $end
$var wire 24 $# out_i [23:0] $end
$var reg 1 %# assign_out $end
$var reg 6 &# count_y [5:0] $end
$var reg 24 '# din_i_reg [23:0] $end
$var reg 24 (# din_r_reg [23:0] $end
$var reg 16 )# dout_i [15:0] $end
$var reg 16 *# dout_r [15:0] $end
$var reg 1 +# in_valid_reg $end
$var reg 6 ,# next_count_y [5:0] $end
$var reg 16 -# next_dout_i [15:0] $end
$var reg 16 .# next_dout_r [15:0] $end
$var reg 1 /# next_out_valid $end
$var reg 1 0# next_over $end
$var reg 1 1# next_r4_valid $end
$var reg 1 2# next_s5_count $end
$var reg 2 3# no5_state [1:0] $end
$var reg 1 4# over $end
$var reg 1 5# r4_valid $end
$var reg 1 6# s5_count $end
$var reg 5 7# y_1_delay [4:0] $end
$var integer 32 8# i [31:0] $end
$scope module radix_no1 $end
$var wire 24 9# din_b_i [23:0] $end
$var wire 24 :# din_b_r [23:0] $end
$var wire 24 ;# w_r [23:0] $end
$var wire 24 <# w_i [23:0] $end
$var wire 2 =# state [1:0] $end
$var wire 24 ># din_a_r [23:0] $end
$var wire 24 ?# din_a_i [23:0] $end
$var reg 24 @# a [23:0] $end
$var reg 24 A# b [23:0] $end
$var reg 24 B# c [23:0] $end
$var reg 24 C# d [23:0] $end
$var reg 24 D# delay_i [23:0] $end
$var reg 24 E# delay_r [23:0] $end
$var reg 42 F# inter [41:0] $end
$var reg 42 G# mul_i [41:0] $end
$var reg 42 H# mul_r [41:0] $end
$var reg 24 I# op_i [23:0] $end
$var reg 24 J# op_r [23:0] $end
$var reg 1 |" outvalid $end
$upscope $end
$scope module radix_no2 $end
$var wire 24 K# din_b_i [23:0] $end
$var wire 24 L# din_b_r [23:0] $end
$var wire 24 M# w_r [23:0] $end
$var wire 24 N# w_i [23:0] $end
$var wire 2 O# state [1:0] $end
$var wire 24 P# din_a_r [23:0] $end
$var wire 24 Q# din_a_i [23:0] $end
$var reg 24 R# a [23:0] $end
$var reg 24 S# b [23:0] $end
$var reg 24 T# c [23:0] $end
$var reg 24 U# d [23:0] $end
$var reg 24 V# delay_i [23:0] $end
$var reg 24 W# delay_r [23:0] $end
$var reg 42 X# inter [41:0] $end
$var reg 42 Y# mul_i [41:0] $end
$var reg 42 Z# mul_r [41:0] $end
$var reg 24 [# op_i [23:0] $end
$var reg 24 \# op_r [23:0] $end
$var reg 1 w" outvalid $end
$upscope $end
$scope module radix_no3 $end
$var wire 24 ]# din_b_i [23:0] $end
$var wire 24 ^# din_b_r [23:0] $end
$var wire 24 _# w_r [23:0] $end
$var wire 24 `# w_i [23:0] $end
$var wire 2 a# state [1:0] $end
$var wire 24 b# din_a_r [23:0] $end
$var wire 24 c# din_a_i [23:0] $end
$var reg 24 d# a [23:0] $end
$var reg 24 e# b [23:0] $end
$var reg 24 f# c [23:0] $end
$var reg 24 g# d [23:0] $end
$var reg 24 h# delay_i [23:0] $end
$var reg 24 i# delay_r [23:0] $end
$var reg 42 j# inter [41:0] $end
$var reg 42 k# mul_i [41:0] $end
$var reg 42 l# mul_r [41:0] $end
$var reg 24 m# op_i [23:0] $end
$var reg 24 n# op_r [23:0] $end
$var reg 1 r" outvalid $end
$upscope $end
$scope module radix_no4 $end
$var wire 24 o# din_b_i [23:0] $end
$var wire 24 p# din_b_r [23:0] $end
$var wire 24 q# w_r [23:0] $end
$var wire 24 r# w_i [23:0] $end
$var wire 2 s# state [1:0] $end
$var wire 24 t# din_a_r [23:0] $end
$var wire 24 u# din_a_i [23:0] $end
$var reg 24 v# a [23:0] $end
$var reg 24 w# b [23:0] $end
$var reg 24 x# c [23:0] $end
$var reg 24 y# d [23:0] $end
$var reg 24 z# delay_i [23:0] $end
$var reg 24 {# delay_r [23:0] $end
$var reg 42 |# inter [41:0] $end
$var reg 42 }# mul_i [41:0] $end
$var reg 42 ~# mul_r [41:0] $end
$var reg 24 !$ op_i [23:0] $end
$var reg 24 "$ op_r [23:0] $end
$var reg 1 m" outvalid $end
$upscope $end
$scope module radix_no5 $end
$var wire 24 #$ din_b_i [23:0] $end
$var wire 24 $$ din_b_r [23:0] $end
$var wire 2 %$ state [1:0] $end
$var wire 24 &$ w_i [23:0] $end
$var wire 24 '$ w_r [23:0] $end
$var wire 24 ($ din_a_r [23:0] $end
$var wire 24 )$ din_a_i [23:0] $end
$var reg 24 *$ a [23:0] $end
$var reg 24 +$ b [23:0] $end
$var reg 24 ,$ c [23:0] $end
$var reg 24 -$ d [23:0] $end
$var reg 24 .$ delay_i [23:0] $end
$var reg 24 /$ delay_r [23:0] $end
$var reg 42 0$ inter [41:0] $end
$var reg 42 1$ mul_i [41:0] $end
$var reg 42 2$ mul_r [41:0] $end
$var reg 24 3$ op_i [23:0] $end
$var reg 24 4$ op_r [23:0] $end
$var reg 1 5$ outvalid $end
$upscope $end
$scope module rom16 $end
$var wire 1 " clk $end
$var wire 1 +# in_valid $end
$var wire 1 L" rst_n $end
$var reg 6 6$ count [5:0] $end
$var reg 6 7$ next_count [5:0] $end
$var reg 1 8$ next_valid $end
$var reg 2 9$ state [1:0] $end
$var reg 1 :$ valid $end
$var reg 24 ;$ w_i [23:0] $end
$var reg 24 <$ w_r [23:0] $end
$upscope $end
$scope module rom2 $end
$var wire 1 " clk $end
$var wire 1 r" in_valid $end
$var wire 1 L" rst_n $end
$var reg 6 =$ count [5:0] $end
$var reg 6 >$ next_count [5:0] $end
$var reg 2 ?$ next_s_count [1:0] $end
$var reg 2 @$ s_count [1:0] $end
$var reg 2 A$ state [1:0] $end
$var reg 1 B$ valid $end
$var reg 24 C$ w_i [23:0] $end
$var reg 24 D$ w_r [23:0] $end
$upscope $end
$scope module rom4 $end
$var wire 1 " clk $end
$var wire 1 w" in_valid $end
$var wire 1 L" rst_n $end
$var reg 6 E$ count [5:0] $end
$var reg 6 F$ next_count [5:0] $end
$var reg 3 G$ next_s_count [2:0] $end
$var reg 3 H$ s_count [2:0] $end
$var reg 2 I$ state [1:0] $end
$var reg 1 J$ valid $end
$var reg 24 K$ w_i [23:0] $end
$var reg 24 L$ w_r [23:0] $end
$upscope $end
$scope module rom8 $end
$var wire 1 " clk $end
$var wire 1 |" in_valid $end
$var wire 1 L" rst_n $end
$var reg 6 M$ count [5:0] $end
$var reg 6 N$ next_count [5:0] $end
$var reg 4 O$ next_s_count [3:0] $end
$var reg 4 P$ s_count [3:0] $end
$var reg 2 Q$ state [1:0] $end
$var reg 1 R$ valid $end
$var reg 24 S$ w_i [23:0] $end
$var reg 24 T$ w_r [23:0] $end
$upscope $end
$scope module shift_1 $end
$var wire 1 " clk $end
$var wire 24 U$ din_i [23:0] $end
$var wire 24 V$ din_r [23:0] $end
$var wire 24 W$ dout_i [23:0] $end
$var wire 24 X$ dout_r [23:0] $end
$var wire 1 m" in_valid $end
$var wire 1 L" rst_n $end
$var reg 2 Y$ counter_1 [1:0] $end
$var reg 2 Z$ next_counter_1 [1:0] $end
$var reg 1 [$ next_valid $end
$var reg 24 \$ shift_reg_i [23:0] $end
$var reg 24 ]$ shift_reg_r [23:0] $end
$var reg 24 ^$ tmp_reg_i [23:0] $end
$var reg 24 _$ tmp_reg_r [23:0] $end
$var reg 1 `$ valid $end
$upscope $end
$scope module shift_16 $end
$var wire 1 " clk $end
$var wire 24 a$ din_i [23:0] $end
$var wire 24 b$ din_r [23:0] $end
$var wire 1 +# in_valid $end
$var wire 1 L" rst_n $end
$var wire 24 c$ dout_r [23:0] $end
$var wire 24 d$ dout_i [23:0] $end
$var reg 6 e$ counter_16 [5:0] $end
$var reg 6 f$ next_counter_16 [5:0] $end
$var reg 1 g$ next_valid $end
$var reg 384 h$ shift_reg_i [383:0] $end
$var reg 384 i$ shift_reg_r [383:0] $end
$var reg 384 j$ tmp_reg_i [383:0] $end
$var reg 384 k$ tmp_reg_r [383:0] $end
$var reg 1 l$ valid $end
$upscope $end
$scope module shift_2 $end
$var wire 1 " clk $end
$var wire 24 m$ din_i [23:0] $end
$var wire 24 n$ din_r [23:0] $end
$var wire 1 r" in_valid $end
$var wire 1 L" rst_n $end
$var wire 24 o$ dout_r [23:0] $end
$var wire 24 p$ dout_i [23:0] $end
$var reg 3 q$ counter_2 [2:0] $end
$var reg 3 r$ next_counter_2 [2:0] $end
$var reg 1 s$ next_valid $end
$var reg 48 t$ shift_reg_i [47:0] $end
$var reg 48 u$ shift_reg_r [47:0] $end
$var reg 48 v$ tmp_reg_i [47:0] $end
$var reg 48 w$ tmp_reg_r [47:0] $end
$var reg 1 x$ valid $end
$upscope $end
$scope module shift_4 $end
$var wire 1 " clk $end
$var wire 24 y$ din_i [23:0] $end
$var wire 24 z$ din_r [23:0] $end
$var wire 1 w" in_valid $end
$var wire 1 L" rst_n $end
$var wire 24 {$ dout_r [23:0] $end
$var wire 24 |$ dout_i [23:0] $end
$var reg 4 }$ counter_4 [3:0] $end
$var reg 4 ~$ next_counter_4 [3:0] $end
$var reg 1 !% next_valid $end
$var reg 96 "% shift_reg_i [95:0] $end
$var reg 96 #% shift_reg_r [95:0] $end
$var reg 96 $% tmp_reg_i [95:0] $end
$var reg 96 %% tmp_reg_r [95:0] $end
$var reg 1 &% valid $end
$upscope $end
$scope module shift_8 $end
$var wire 1 " clk $end
$var wire 24 '% din_i [23:0] $end
$var wire 24 (% din_r [23:0] $end
$var wire 1 |" in_valid $end
$var wire 1 L" rst_n $end
$var wire 24 )% dout_r [23:0] $end
$var wire 24 *% dout_i [23:0] $end
$var reg 5 +% counter_8 [4:0] $end
$var reg 5 ,% next_counter_8 [4:0] $end
$var reg 1 -% next_valid $end
$var reg 192 .% shift_reg_i [191:0] $end
$var reg 192 /% shift_reg_r [191:0] $end
$var reg 192 0% tmp_reg_i [191:0] $end
$var reg 192 1% tmp_reg_r [191:0] $end
$var reg 1 2% valid $end
$upscope $end
$upscope $end
$upscope $end
$upscope $end
$enddefinitions $end
#0
$dumpvars
x2%
bx 1%
bx 0%
bx /%
bx .%
x-%
bx ,%
bx +%
bx *%
bx )%
b0 (%
b0 '%
x&%
bx %%
bx $%
bx #%
bx "%
x!%
bx ~$
bx }$
bx |$
bx {$
b0 z$
b0 y$
xx$
bx w$
bx v$
bx u$
bx t$
xs$
bx r$
bx q$
bx p$
bx o$
b0 n$
b0 m$
xl$
bx k$
bx j$
bx i$
bx h$
xg$
bx f$
bx e$
bx d$
bx c$
bx00000000 b$
bx00000000 a$
x`$
bx _$
bx ^$
bx ]$
bx \$
x[$
bx Z$
bx Y$
bx X$
bx W$
b0 V$
b0 U$
bx T$
bx S$
xR$
bx Q$
bx P$
bx O$
bx N$
bx M$
bx L$
bx K$
xJ$
bx I$
bx H$
bx G$
bx F$
bx E$
bx D$
bx C$
xB$
bx A$
bx @$
bx ?$
bx >$
bx =$
bx <$
bx ;$
x:$
bx 9$
x8$
bx 7$
bx 6$
x5$
b0 4$
b0 3$
bx 2$
bx 1$
bx 0$
b0 /$
b0 .$
bx -$
bx ,$
bx +$
bx *$
bx )$
bx ($
b100000000 '$
b0 &$
bx %$
b0 $$
b0 #$
b0 "$
b0 !$
bx ~#
bx }#
bx |#
b0 {#
b0 z#
bx y#
bx x#
bx w#
bx v#
bx u#
bx t#
bx s#
bx r#
bx q#
b0 p#
b0 o#
b0 n#
b0 m#
bx l#
bx k#
bx j#
b0 i#
b0 h#
bx g#
bx f#
bx e#
bx d#
bx c#
bx b#
bx a#
bx `#
bx _#
b0 ^#
b0 ]#
b0 \#
b0 [#
bx Z#
bx Y#
bx X#
b0 W#
b0 V#
bx U#
bx T#
bx S#
bx R#
bx Q#
bx P#
bx O#
bx N#
bx M#
b0 L#
b0 K#
b0 J#
b0 I#
bx H#
bx G#
bx F#
bx00000000 E#
bx00000000 D#
bx C#
bx B#
bx A#
bx @#
bx ?#
bx >#
bx =#
bx <#
bx ;#
bx00000000 :#
bx00000000 9#
b100000 8#
bx 7#
x6#
x5#
x4#
bx 3#
x2#
x1#
x0#
x/#
bx .#
bx -#
bx ,#
x+#
bx *#
bx )#
bx00000000 (#
bx00000000 '#
bx &#
x%#
b0 $#
b0 ##
bx00000000 "#
bx00000000 !#
b0 ~"
b0 }"
x|"
b0 {"
b0 z"
b0 y"
b0 x"
xw"
b0 v"
b0 u"
b0 t"
b0 s"
xr"
b0 q"
b0 p"
b0 o"
b0 n"
xm"
b0 l"
b0 k"
bx j"
bx i"
bx h"
bx g"
bx f"
bx e"
bx d"
bx c"
bx b"
bx a"
bx `"
bx _"
bx ^"
bx ]"
bx \"
bx ["
bx Z"
bx Y"
bx X"
bx W"
bx V"
bx U"
bx T"
bx00000000 S"
bx R"
bx00000000 Q"
bx P"
b0 O"
bx N"
b0 M"
1L"
0K"
bx J"
bx I"
bx H"
bx G"
xF"
b1011100000 E"
b101111101 D"
b100010101 C"
b111100101111 B"
b111110001101 A"
b10101010011 @"
b10111011110 ?"
b110101000011 >"
b110011100 ="
b110111110001 <"
b11111111011 ;"
b100100001011 :"
b111000011100 9"
b110100101101 8"
b100111110000 7"
b110000111000 6"
b11000011011 5"
b110100010001 4"
b100101011 3"
b100110111011 2"
b111000100011 1"
b11110111011 0"
b101001111111 /"
b111100011101 ."
b1100000 -"
b110000101110 ,"
b11101100001 +"
b10101000010 *"
b101010 )"
b101111000010 ("
b100101011100 '"
b0 &"
b100111001001 %"
b111100110101 $"
b100001110100 #"
b111111011100 ""
b11100011010 !"
b111111111010 ~
b11111110000 }
b1010100000 |
b10000011100 {
b1001101101 z
b100010001010 y
b111111001111 x
b110001001 w
b1010110 v
b1111001 u
b101001000111 t
b101000101100 s
b1111101010 r
b1010101001 q
b100000110 p
b101000100011 o
b111110011110 n
b11000111100 m
b1110100 l
b110100011001 k
b111111101000 j
b111101101111 i
b101010001011 h
b101111 g
b100100100000 f
b11010001010 e
b100010100100 d
b1011100000 c
b101111101 b
b100010101 a
b111100101111 `
b111110001101 _
b10101010011 ^
b10111011110 ]
b110101000011 \
b110011100 [
b110111110001 Z
b11111111011 Y
b100100001011 X
b111000011100 W
b110100101101 V
b100111110000 U
b110000111000 T
b11000011011 S
b110100010001 R
b100101011 Q
b100110111011 P
b111000100011 O
b11110111011 N
b101001111111 M
b111100011101 L
b1100000 K
b110000101110 J
b11101100001 I
b10101000010 H
b101010 G
b101111000010 F
b100101011100 E
b0 D
b100111001001 C
b111100110101 B
b100001110100 A
b111111011100 @
b11100011010 ?
b111111111010 >
b11111110000 =
b1010100000 <
b10000011100 ;
b1001101101 :
b100010001010 9
b111111001111 8
b110001001 7
b1010110 6
b1111001 5
b101001000111 4
b101000101100 3
b1111101010 2
b1010101001 1
b100000110 0
b101000100011 /
b111110011110 .
b11000111100 -
b1110100 ,
b110100011001 +
b111111101000 *
b111101101111 )
b101010001011 (
b101111 '
b100100100000 &
b11010001010 %
b100010100100 $
1#
1"
0!
$end
#500
0"
#1000
b0 `"
b0 N#
b0 S$
b100000000 _"
b100000000 M#
b100000000 T$
0|"
18$
b0 i"
b0 <#
b0 ;$
b100000000 h"
b100000000 ;#
b100000000 <$
b11 j"
b11 =#
b11 9$
0+#
b100000 8#
1"
#1500
01#
0w"
0r"
0m"
b0 T"
b0 ^"
b0 ?#
b0 d$
0g$
b0 j$
b0 k$
b1 f$
b0 ]"
b0 >#
b0 c$
b0 j"
b0 =#
b0 9$
b0 7$
b0 V"
b0 Q#
b0 *%
0-%
b0 0%
b0 1%
b1 ,%
b0 U"
b0 P#
b0 )%
b0 a"
b0 O#
b0 Q$
b0 O$
b0 N$
b0 X"
b0 c#
b0 |$
0!%
b0 $%
b0 %%
b1 ~$
b0 W"
b0 b#
b0 {$
b0 c"
b0 `#
b0 K$
b100000000 b"
b100000000 _#
b100000000 L$
b0 d"
b0 a#
b0 I$
b0 G$
b0 F$
b0 Z"
b0 u#
b0 p$
0s$
b0 v$
b0 w$
b1 r$
b0 Y"
b0 t#
b0 o$
b0 f"
b0 r#
b0 C$
b100000000 e"
b100000000 q#
b100000000 D$
b0 ?$
b0 >$
b0 g"
b0 s#
b0 A$
0[$
b0 ^$
b0 _$
b1 Z$
05$
0/#
00#
b0 -#
b0 .#
b0 ,#
b0 3#
b0 %$
02#
b0 "#
b0 D#
b0 a$
b0 !#
b0 E#
b0 b$
0l$
b0 e$
b0 h$
b0 i$
0:$
b0 6$
02%
b0 +%
b0 .%
b0 /%
b0 P$
b0 M$
0&%
b0 }$
b0 "%
b0 #%
b0 H$
b0 E$
0x$
b0 q$
b0 t$
b0 u$
b0 @$
b0 =$
0`$
b0 Y$
b0 \"
b0 )$
b0 W$
b0 \$
b0 ["
b0 ($
b0 X$
b0 ]$
b0 7#
b0 H"
b0 )#
b0 G"
b0 *#
04#
0F"
0%#
b0 &#
05#
06#
b0 Q"
b0 9#
b0 '#
b0 S"
b0 :#
b0 (#
b100000 8#
0L"
0"
#2000
b100000 8#
1"
#2500
1L"
0"
#3000
bx00000000 "#
bx00000000 D#
bx00000000 a$
bx00000000 !#
bx00000000 E#
bx00000000 b$
bx00000000 Q"
bx00000000 9#
bx00000000 '#
bx00000000 S"
bx00000000 :#
bx00000000 (#
b100000 8#
1"
#3500
b0 N"
0"
#4000
b100000 8#
1"
#4500
b1 N"
b100010100100 I"
b100010100100 P"
b0 J"
b0 R"
1K"
0"
#5000
b1 7$
b111110001010010000000000 "#
b111110001010010000000000 D#
b111110001010010000000000 a$
b0 !#
b0 E#
b0 b$
1+#
b111110001010010000000000 Q"
b111110001010010000000000 9#
b111110001010010000000000 '#
b0 S"
b0 :#
b0 (#
b100000 8#
1"
#5500
b10 N"
b11010001010 I"
b11010001010 P"
b100101011100 J"
b100101011100 R"
0"
#6000
b1101000101000000000 "#
b1101000101000000000 D#
b1101000101000000000 a$
b111110010101110000000000 !#
b111110010101110000000000 E#
b111110010101110000000000 b$
b10 7$
1g$
b111110001010010000000000 j$
b10 f$
b1101000101000000000 Q"
b1101000101000000000 9#
b1101000101000000000 '#
b111110010101110000000000 S"
b111110010101110000000000 :#
b111110010101110000000000 (#
1:$
b1 6$
1l$
b111110001010010000000000 h$
b1 e$
b100000 8#
1"
#6500
b11 N"
b100000110 I"
b100000110 P"
b100110111011 J"
b100110111011 R"
0"
#7000
b111110001010010000000000000001101000101000000000 j$
b111110010101110000000000 k$
b11 f$
b11 7$
b10000011000000000 "#
b10000011000000000 D#
b10000011000000000 a$
b111110011011101100000000 !#
b111110011011101100000000 E#
b111110011011101100000000 b$
b111110001010010000000000000001101000101000000000 h$
b111110010101110000000000 i$
b10 e$
b10 6$
b10000011000000000 Q"
b10000011000000000 9#
b10000011000000000 '#
b111110011011101100000000 S"
b111110011011101100000000 :#
b111110011011101100000000 (#
b100000 8#
1"
#7500
b100 N"
b10000011100 I"
b10000011100 P"
b110011100 J"
b110011100 R"
0"
#8000
b1000001110000000000 "#
b1000001110000000000 D#
b1000001110000000000 a$
b11001110000000000 !#
b11001110000000000 E#
b11001110000000000 b$
b100 7$
b111110001010010000000000000001101000101000000000000000010000011000000000 j$
b111110010101110000000000111110011011101100000000 k$
b100 f$
b1000001110000000000 Q"
b1000001110000000000 9#
b1000001110000000000 '#
b11001110000000000 S"
b11001110000000000 :#
b11001110000000000 (#
b11 6$
b111110001010010000000000000001101000101000000000000000010000011000000000 h$
b111110010101110000000000111110011011101100000000 i$
b11 e$
b100000 8#
1"
#8500
b101 N"
b111111111010 I"
b111111111010 P"
b10101010011 J"
b10101010011 R"
0"
#9000
b111110001010010000000000000001101000101000000000000000010000011000000000000001000001110000000000 j$
b111110010101110000000000111110011011101100000000000000011001110000000000 k$
b101 f$
b101 7$
b111111111111101000000000 "#
b111111111111101000000000 D#
b111111111111101000000000 a$
b1010101001100000000 !#
b1010101001100000000 E#
b1010101001100000000 b$
b111110001010010000000000000001101000101000000000000000010000011000000000000001000001110000000000 h$
b111110010101110000000000111110011011101100000000000000011001110000000000 i$
b100 e$
b100 6$
b111111111111101000000000 Q"
b111111111111101000000000 9#
b111111111111101000000000 '#
b1010101001100000000 S"
b1010101001100000000 :#
b1010101001100000000 (#
b100000 8#
1"
#9500
b110 N"
b11100011010 I"
b11100011010 P"
b111110001101 J"
b111110001101 R"
0"
#10000
b1110001101000000000 "#
b1110001101000000000 D#
b1110001101000000000 a$
b111111111000110100000000 !#
b111111111000110100000000 E#
b111111111000110100000000 b$
b110 7$
b111110001010010000000000000001101000101000000000000000010000011000000000000001000001110000000000111111111111101000000000 j$
b111110010101110000000000111110011011101100000000000000011001110000000000000001010101001100000000 k$
b110 f$
b1110001101000000000 Q"
b1110001101000000000 9#
b1110001101000000000 '#
b111111111000110100000000 S"
b111111111000110100000000 :#
b111111111000110100000000 (#
b101 6$
b111110001010010000000000000001101000101000000000000000010000011000000000000001000001110000000000111111111111101000000000 h$
b111110010101110000000000111110011011101100000000000000011001110000000000000001010101001100000000 i$
b101 e$
b100000 8#
1"
#10500
b111 N"
b111111011100 I"
b111111011100 P"
b111100101111 J"
b111100101111 R"
0"
